…
### How many countries from each colonizer?

``` r
holidays %>% 
  group_by(independence_from) %>% 
  select(date_parsed) %>%
  distinct() %>% 
  count %>% 
  arrange(desc(n))
```

    ## Adding missing grouping variables: `independence_from`

    ## # A tibble: 51 x 2
    ## # Groups:   independence_from [51]
    ##    independence_from                                                  n
    ##    <chr>                                                          <int>
    ##  1 United Kingdom                                                    50
    ##  2 France                                                            25
    ##  3 Spanish Empire                                                    13
    ##  4 Soviet Union                                                      11
    ##  5 <NA>                                                               9
    ##  6 Ottoman Empire                                                     7
    ##  7 Portugal                                                           7
    ##  8 Russian Soviet Federative Socialist Republic                       5
    ##  9 Spain                                                              4
    ## 10 Russian Soviet Federative Socialist Republic and German Empire     3
    ## # ... with 41 more rows
…
