…
**Variable type: numeric**

| skim\_variable | n\_missing | complete\_rate |        mean |           sd |      p0 |       p25 |        p50 |         p75 |         p100 | hist  |
| :------------- | ---------: | -------------: | ----------: | -----------: | ------: | --------: | ---------: | ----------: | -----------: | :---- |
| year           |          0 |           1.00 |     2003.38 |         8.01 | 1990.00 |   1996.00 |    2003.00 |     2010.00 |       2017.0 | ▇▆▇▆▇ |
| total\_pop     |        935 |           0.85 | 27891651.10 | 115700661.95 |   50.00 | 427411.75 | 4706194.00 | 16483944.25 | 1359368470.0 | ▇▁▁▁▁ |
| gdp\_per\_cap  |       1202 |           0.81 |    15832.15 |     19016.17 |  247.44 |   2895.37 |    8508.30 |    21866.09 |     135318.8 | ▇▂▁▁▁ |
| mobile\_subs   |        676 |           0.89 |       46.46 |        51.80 |    0.00 |      0.57 |      22.64 |       88.00 |        321.8 | ▇▃▁▁▁ |

``` r
mobile %>% filter(is.na(code))
```

    ## # A tibble: 28 x 7
    ##    entity               code   year total_pop gdp_per_cap mobile_subs continent
    ##    <chr>                <chr> <dbl>     <dbl>       <dbl>       <dbl> <chr>    
    ##  1 Syrian Arab Republic <NA>   1990        NA          NA      0      Asia     
    ##  2 Syrian Arab Republic <NA>   1991        NA          NA      0      Asia     
    ##  3 Syrian Arab Republic <NA>   1992        NA          NA      0      Asia     
    ##  4 Syrian Arab Republic <NA>   1993        NA          NA      0      Asia     
    ##  5 Syrian Arab Republic <NA>   1994        NA          NA      0      Asia     
    ##  6 Syrian Arab Republic <NA>   1995        NA          NA      0      Asia     
    ##  7 Syrian Arab Republic <NA>   1996        NA          NA      0      Asia     
    ##  8 Syrian Arab Republic <NA>   1997        NA          NA      0      Asia     
    ##  9 Syrian Arab Republic <NA>   1998        NA          NA      0      Asia     
    ## 10 Syrian Arab Republic <NA>   1999        NA          NA      0.0250 Asia     
    ## # ... with 18 more rows

``` r
mobile %>% filter(entity == "Syrian Arab Republic")
```

    ## # A tibble: 28 x 7
    ##    entity               code   year total_pop gdp_per_cap mobile_subs continent
    ##    <chr>                <chr> <dbl>     <dbl>       <dbl>       <dbl> <chr>    
    ##  1 Syrian Arab Republic <NA>   1990        NA          NA      0      Asia     
    ##  2 Syrian Arab Republic <NA>   1991        NA          NA      0      Asia     
    ##  3 Syrian Arab Republic <NA>   1992        NA          NA      0      Asia     
    ##  4 Syrian Arab Republic <NA>   1993        NA          NA      0      Asia     
    ##  5 Syrian Arab Republic <NA>   1994        NA          NA      0      Asia     
    ##  6 Syrian Arab Republic <NA>   1995        NA          NA      0      Asia     
    ##  7 Syrian Arab Republic <NA>   1996        NA          NA      0      Asia     
    ##  8 Syrian Arab Republic <NA>   1997        NA          NA      0      Asia     
    ##  9 Syrian Arab Republic <NA>   1998        NA          NA      0      Asia     
    ## 10 Syrian Arab Republic <NA>   1999        NA          NA      0.0250 Asia     
    ## # ... with 18 more rows

``` r
mobile %>% filter(is.na(total_pop))
```

    ## # A tibble: 935 x 7
    ##    entity      code   year total_pop gdp_per_cap mobile_subs continent
    ##    <chr>       <chr> <dbl>     <dbl>       <dbl>       <dbl> <chr>    
    ##  1 Afghanistan AFG    2014        NA       1839.        56.2 Asia     
    ##  2 Afghanistan AFG    2015        NA       1809.        58.4 Asia     
    ##  3 Afghanistan AFG    2016        NA       1803.        62.3 Asia     
    ##  4 Afghanistan AFG    2017        NA       1804.        67.4 Asia     
    ##  5 Albania     ALB    2014        NA      10701.       115.  Europe   
    ##  6 Albania     ALB    2015        NA      10970.       116.  Europe   
    ##  7 Albania     ALB    2016        NA      11356.       115.  Europe   
    ##  8 Albania     ALB    2017        NA      11803.       119.  Europe   
    ##  9 Algeria     DZA    2014        NA      13483.       111.  Africa   
    ## 10 Algeria     DZA    2015        NA      13725.       108.  Africa   
    ## # ... with 925 more rows
…
**Variable type: numeric**

| skim\_variable | n\_missing | complete\_rate |        mean |           sd |      p0 |       p25 |        p50 |         p75 |         p100 | hist  |
| :------------- | ---------: | -------------: | ----------: | -----------: | ------: | --------: | ---------: | ----------: | -----------: | :---- |
| year           |          0 |           1.00 |     2004.52 |         8.66 | 1990.00 |   1997.00 |    2005.00 |     2012.00 | 2.019000e+03 | ▇▇▇▇▇ |
| total\_pop     |         44 |           0.99 | 28193341.24 | 118773574.63 | 1000.00 | 378250.00 | 4621500.00 | 16919500.00 | 1.433784e+09 | ▇▁▁▁▁ |
| gdp\_per\_cap  |       1899 |           0.73 |    15832.15 |     19016.17 |  247.44 |   2895.37 |    8508.30 |    21866.09 | 1.353188e+05 | ▇▂▁▁▁ |
| landline\_subs |       1279 |           0.82 |       19.62 |        20.34 |    0.00 |      2.37 |      12.63 |       31.72 | 1.327200e+02 | ▇▂▁▁▁ |

``` r
landline %>% filter(is.na(total_pop))
```

    ## # A tibble: 44 x 7
    ##    entity             code    year total_pop gdp_per_cap landline_subs continent
    ##    <chr>              <chr>  <dbl>     <dbl>       <dbl>         <dbl> <chr>    
    ##  1 Christmas Island   CXR     2015        NA          NA            NA Oceania  
    ##  2 Guernsey           GGY     2015        NA          NA            NA Europe   
    ##  3 Jersey             JEY     2015        NA          NA            NA Europe   
    ##  4 Netherlands Antil~ ANT     2015        NA          NA            NA Americas 
    ##  5 Norfolk Island     NFK     2015        NA          NA            NA Oceania  
    ##  6 Northern Cyprus    OWID_~  2015        NA          NA            NA Asia     
    ##  7 Pitcairn           PCN     2015        NA          NA            NA Oceania  
    ##  8 Republic of Vietn~ OWID_~  2015        NA          NA            NA Asia     
    ##  9 Saint Barthélemy   BLM     2015        NA          NA            NA Americas 
    ## 10 Serbia excluding ~ OWID_~  2015        NA          NA            NA Europe   
    ## # ... with 34 more rows
…
