…
``` r
plastics_long <- plastics %>%
  filter(country != "EMPTY") %>% 
  pivot_longer(cols = c("hdpe", "ldpe", "o", "pet", "pp", "ps", "pvc", "grand_total"),
               names_to = "type",
               values_to= "amount") %>% 
  select(-empty)

plastics_long %>% 
  count(parent_company) %>% 
  arrange(desc(n))
```

    ## # A tibble: 9,796 x 2
    ##    parent_company             n
    ##    <chr>                  <int>
    ##  1 The Coca-Cola Company    704
    ##  2 Unbranded                672
    ##  3 Unilever                 472
    ##  4 Mondelez International   464
    ##  5 Mars, Incorporated       424
    ##  6 Grand Total              408
    ##  7 null                     400
    ##  8 Pepsico                  344
    ##  9 Colgate-Palmolive        336
    ## 10 Ferrero Group            304
    ## # ... with 9,786 more rows
…
  - Activity of BFFP per country?
  - Growth of activity over two years?
  - Which companies pollute most?
  - What sort of plastics?

<!-- end list -->

``` r
plastics_long %>% 
  select(country, year, num_events) %>% 
  distinct() %>% 
  arrange(desc(num_events))
```

    ## # A tibble: 106 x 3
    ##    country                   year num_events
    ##    <chr>                    <dbl>      <dbl>
    ##  1 United States of America  2020        134
    ##  2 India                     2020         56
    ##  3 Indonesia                 2020         50
    ##  4 China                     2019         48
    ##  5 United States of America  2019         42
    ##  6 Japan                     2019         35
    ##  7 Malaysia                  2020         35
    ##  8 Indonesia                 2019         32
    ##  9 Mexico                    2020         32
    ## 10 Korea                     2020         26
    ## # ... with 96 more rows

## Most activity of BFFP in 2020

``` r
plastics_long %>% 
  group_by(country, year) 
```

    ## # A tibble: 96,272 x 7
    ## # Groups:   country, year [106]
    ##    country    year parent_company num_events volunteers type        amount
    ##    <chr>     <dbl> <chr>               <dbl>      <dbl> <chr>        <dbl>
    ##  1 Argentina  2019 Grand Total             4        243 hdpe           215
    ##  2 Argentina  2019 Grand Total             4        243 ldpe            55
    ##  3 Argentina  2019 Grand Total             4        243 o              607
    ##  4 Argentina  2019 Grand Total             4        243 pet           1376
    ##  5 Argentina  2019 Grand Total             4        243 pp             281
    ##  6 Argentina  2019 Grand Total             4        243 ps             116
    ##  7 Argentina  2019 Grand Total             4        243 pvc             18
    ##  8 Argentina  2019 Grand Total             4        243 grand_total   2668
    ##  9 Argentina  2019 Unbranded               4        243 hdpe           155
    ## 10 Argentina  2019 Unbranded               4        243 ldpe            50
    ## # ... with 96,262 more rows
…
