…
-   Long-standing events

``` r
race %>% 
  filter(participants > 0,
         distance  > 0) %>% 
  group_by(event, race) %>% 
  count() %>% 
  arrange(desc(n))
```

    ## # A tibble: 355 x 3
    ## # Groups:   event, race [355]
    ##    event                         race                              n
    ##    <chr>                         <chr>                         <int>
    ##  1 Cloudsplitter 100             100 Mile                          7
    ##  2 Centurion Autumn 100          Centurion Autumn 100              6
    ##  3 Centurion North Downs Way 100 Centurion North Downs Way 100     6
    ##  4 Centurion Thames Path 100     Centurion Thames Path 100         6
    ##  5 Coldwater Rumble              100 Miles                         6
    ##  6 Persenk Ultra                 PERSENK ULTRA                     6
    ##  7 Täby Extreme Challenge        TEC 100 Miles                     6
    ##  8 100 Miles Sud De France       100 Miles                         5
    ##  9 Alpine Challenge              100 Mile Individual               5
    ## 10 Badger Mountain Challenge     100 Mile                          5
    ## # ... with 345 more rows
…
-   None have 0 participants
-   Naming is very inconsistent

``` r
ultra_rankings |>
  left_join(race) |>
  group_by(race_year_id, race, date, event) |>
  count() |>
  arrange(desc(n))
```

    ## Joining, by = "race_year_id"

    ## # A tibble: 1,207 x 5
    ## # Groups:   race_year_id, race, date, event [1,207]
    ##    race_year_id race                        date       event                   n
    ##           <dbl> <chr>                       <date>     <chr>               <int>
    ##  1        48019 La Diagonale Des Fous       2019-10-17 Le Grand Raid De L~  2716
    ##  2        30965 La Diagonale Des Fous       2018-10-18 Le Grand Raid De L~  2660
    ##  3        25073 UTMB®                       2018-08-31 UTMB®                2565
    ##  4        39881 UTMB®                       2019-08-30 UTMB®                2549
    ##  5        20273 La Diagonale Des Fous       2017-10-19 Grand Raid De La R~  2548
    ##  6        17383 UTMB®                       2017-09-01 UTMB®                2542
    ##  7         9086 Le Grand Raid De La Réunion 2015-10-22 Le Grand Raid De L~  1729
    ##  8        15338 Le Grand Raid De La Réunion 2016-10-20 Le Grand Raid De L~  1688
    ##  9         3940 UTMB®                       2013-08-30 The North Face Ult~  1687
    ## 10         8592 UTMB®                       2015-08-28 Ultra-Trail Du Mon~  1633
    ## # ... with 1,197 more rows
…
