…
``` r
dat %>% 
  group_by(common_name) %>% 
  count() %>% 
  arrange(desc(n))
```

    ## # A tibble: 26 x 2
    ## # Groups:   common_name [26]
    ##    common_name                      n
    ##    <chr>                        <int>
    ##  1 Gray mouse lemur             12275
    ##  2 Coquerel’s sifaka             8996
    ##  3 Fat-tailed dwarf lemur        8070
    ##  4 Ring-tailed lemur             7490
    ##  5 Aye-aye                       5077
    ##  6 Red ruffed lemur              4166
    ##  7 Mongoose lemur                3645
    ##  8 Blue-eyed black lemur         3217
    ##  9 Pygmy slow loris              2757
    ## 10 Black-and-white ruffed lemur  2735
    ## # ... with 16 more rows

``` r
dat %>% 
  group_by(name) %>% 
  count() %>% 
  arrange(n)
```

    ## # A tibble: 2,244 x 2
    ## # Groups:   name [2,244]
    ##    name           n
    ##    <chr>      <int>
    ##  1 ABNER          1
    ##  2 ACMITE         1
    ##  3 ADAMANTIUM     1
    ##  4 ADHARA         1
    ##  5 ADRIANA        1
    ##  6 AGATHA         1
    ##  7 ALABASTER      1
    ##  8 ALCMENE        1
    ##  9 ALCOR          1
    ## 10 ALPHABET       1
    ## # ... with 2,234 more rows
…
## The real Maurice

  - This is the only lemur with a name from the movie Madagascar,
    however he was born before the movie came out.
  - I will look at something else instead.

<!-- end list -->

``` r
dat %>% 
  filter(name == 
           "MAURICE")
```

    ## # A tibble: 98 x 56
    ##    taxon dlc_id hybrid sex   name    current_resident stud_book dob       
    ##    <chr> <chr>  <chr>  <chr> <chr>   <chr>            <chr>     <date>    
    ##  1 ECOL  5973   N      M     MAURICE N                1132      1985-03-27
    ##  2 ECOL  5973   N      M     MAURICE N                1132      1985-03-27
    ##  3 ECOL  5973   N      M     MAURICE N                1132      1985-03-27
    ##  4 ECOL  5973   N      M     MAURICE N                1132      1985-03-27
    ##  5 ECOL  5973   N      M     MAURICE N                1132      1985-03-27
    ##  6 ECOL  5973   N      M     MAURICE N                1132      1985-03-27
    ##  7 ECOL  5973   N      M     MAURICE N                1132      1985-03-27
    ##  8 ECOL  5973   N      M     MAURICE N                1132      1985-03-27
    ##  9 ECOL  5973   N      M     MAURICE N                1132      1985-03-27
    ## 10 ECOL  5973   N      M     MAURICE N                1132      1985-03-27
    ## # ... with 88 more rows, and 48 more variables: birth_month <dbl>,
    ## #   estimated_dob <chr>, birth_type <chr>, birth_institution <chr>,
    ## #   litter_size <dbl>, expected_gestation <dbl>, estimated_concep <date>,
    ## #   concep_month <dbl>, dam_id <chr>, dam_name <chr>, dam_taxon <chr>,
    ## #   dam_dob <date>, dam_age_at_concep_y <dbl>, sire_id <chr>, sire_name <chr>,
    ## #   sire_taxon <chr>, sire_dob <date>, sire_age_at_concep_y <dbl>, dod <date>,
    ## #   age_at_death_y <dbl>, age_of_living_y <lgl>, age_last_verified_y <dbl>,
    ## #   age_max_live_or_dead_y <dbl>, n_known_offspring <dbl>, dob_estimated <chr>,
    ## #   weight_g <dbl>, weight_date <date>, month_of_weight <dbl>,
…
``` r
dat %>% 
  filter(name == "SABINA")
```

    ## # A tibble: 23 x 56
    ##    taxon dlc_id hybrid sex   name   current_resident stud_book dob       
    ##    <chr> <chr>  <chr>  <chr> <chr>  <chr>            <chr>     <date>    
    ##  1 PCOQ  6117   N      F     SABINA N                136       1986-07-07
    ##  2 PCOQ  6117   N      F     SABINA N                136       1986-07-07
    ##  3 PCOQ  6117   N      F     SABINA N                136       1986-07-07
    ##  4 PCOQ  6117   N      F     SABINA N                136       1986-07-07
    ##  5 PCOQ  6117   N      F     SABINA N                136       1986-07-07
    ##  6 PCOQ  6117   N      F     SABINA N                136       1986-07-07
    ##  7 PCOQ  6117   N      F     SABINA N                136       1986-07-07
    ##  8 PCOQ  6117   N      F     SABINA N                136       1986-07-07
    ##  9 PCOQ  6117   N      F     SABINA N                136       1986-07-07
    ## 10 PCOQ  6117   N      F     SABINA N                136       1986-07-07
    ## # ... with 13 more rows, and 48 more variables: birth_month <dbl>,
    ## #   estimated_dob <chr>, birth_type <chr>, birth_institution <chr>,
    ## #   litter_size <dbl>, expected_gestation <dbl>, estimated_concep <date>,
    ## #   concep_month <dbl>, dam_id <chr>, dam_name <chr>, dam_taxon <chr>,
    ## #   dam_dob <date>, dam_age_at_concep_y <dbl>, sire_id <chr>, sire_name <chr>,
    ## #   sire_taxon <chr>, sire_dob <date>, sire_age_at_concep_y <dbl>, dod <date>,
    ## #   age_at_death_y <dbl>, age_of_living_y <lgl>, age_last_verified_y <dbl>,
    ## #   age_max_live_or_dead_y <dbl>, n_known_offspring <dbl>, dob_estimated <chr>,
    ## #   weight_g <dbl>, weight_date <date>, month_of_weight <dbl>,
…
