…
What animals are involved?

  - Cats are most common
  - 12 incidents with snakes - what happened?
  - 2 incidents with fish - what happened?

<!-- end list -->

``` r
animal_rescues %>% 
  group_by(animal_group_parent) %>% 
  count
```

    ## # A tibble: 28 x 2
    ## # Groups:   animal_group_parent [28]
    ##    animal_group_parent     n
    ##    <chr>               <int>
    ##  1 Bird                 1530
    ##  2 Budgie                  2
    ##  3 Bull                    1
    ##  4 cat                    17
    ##  5 Cat                  3649
    ##  6 Cow                     8
    ##  7 Deer                  130
    ##  8 Dog                  1194
    ##  9 Ferret                  8
    ## 10 Fish                    2
    ## # ... with 18 more rows

### Looking at a few incidents

FISH IN DANGER OF DYING IN POND - more details please :)

``` r
animal_rescues %>% 
 filter(animal_group_parent %in% c("Horse"))
```

    ## # A tibble: 193 x 31
    ##    incident_number date_time_of_call cal_year fin_year type_of_incident
    ##              <dbl> <chr>                <dbl> <chr>    <chr>           
    ##  1         2872091 05/01/2009 12:27      2009 2008/09  Special Service 
    ##  2        40866091 12/03/2009 11:51      2009 2008/09  Special Service 
    ##  3        76285091 07/05/2009 10:46      2009 2009/10  Special Service 
    ##  4        87402091 24/05/2009 14:53      2009 2009/10  Special Service 
    ##  5        89957091 28/05/2009 11:11      2009 2009/10  Special Service 
    ##  6       102278091 15/06/2009 15:13      2009 2009/10  Special Service 
    ##  7       123495091 11/07/2009 11:26      2009 2009/10  Special Service 
    ##  8       137525091 02/08/2009 11:38      2009 2009/10  Special Service 
    ##  9       144791091 13/08/2009 12:05      2009 2009/10  Special Service 
    ## 10       151984091 23/08/2009 20:55      2009 2009/10  Special Service 
    ## # ... with 183 more rows, and 26 more variables: pump_count <chr>,
    ## #   pump_hours_total <chr>, hourly_notional_cost <dbl>,
    ## #   incident_notional_cost <chr>, final_description <chr>,
    ## #   animal_group_parent <chr>, originof_call <chr>, property_type <chr>,
    ## #   property_category <chr>, special_service_type_category <chr>,
    ## #   special_service_type <chr>, ward_code <chr>, ward <chr>,
    ## #   borough_code <chr>, borough <chr>, stn_ground_name <chr>, uprn <chr>,
    ## #   street <chr>, usrn <chr>, postcode_district <chr>, easting_m <chr>,
    ## #   northing_m <chr>, easting_rounded <dbl>, northing_rounded <dbl>,
…
