…
## Visualization

  - Examine origin of shows over time
  - often multiple countries
  - str\_detect seems to only work for exact matches, why is that?
  - this needs to be fixed

<!-- end list -->

``` r
netflix_titles %>% 
  filter(str_detect("United States | ,United States | United States,",  country)) ###
```

    ## # A tibble: 2,556 x 12
    ##    show_id type  title director cast  country date_added release_year rating
    ##    <chr>   <chr> <chr> <chr>    <chr> <chr>   <chr>             <dbl> <chr> 
    ##  1 s4      Movie 9     Shane A~ Elij~ United~ November ~         2009 PG-13 
    ##  2 s5      Movie 21    Robert ~ Jim ~ United~ January 1~         2008 PG-13 
    ##  3 s8      Movie 187   Kevin R~ Samu~ United~ November ~         1997 R     
    ##  4 s11     Movie 1922  Zak Hil~ Thom~ United~ October 2~         2017 TV-MA 
    ##  5 s15     Movie 3022  John Su~ Omar~ United~ March 19,~         2019 R     
    ##  6 s26     Movie (T)E~ Lyric R~ <NA>  United~ June 30, ~         2015 NR    
    ##  7 s27     TV S~ (Un)~ <NA>     <NA>  United~ August 12~         2020 TV-MA 
    ##  8 s30     TV S~ #bla~ <NA>     Keny~ United~ April 17,~         2020 TV-MA 
    ##  9 s34     Movie #rea~ Fernand~ Nest~ United~ September~         2017 TV-14 
    ## 10 s36     Movie #Ruc~ Robert ~ <NA>  United~ December ~         2016 TV-PG 
    ## # ... with 2,546 more rows, and 3 more variables: duration <chr>,
    ## #   listed_in <chr>, description <chr>
…
