…
**Variable type: numeric**

| skim\_variable | n\_missing | complete\_rate |    mean |    sd |   p0 |  p25 |  p50 |  p75 | p100 | hist  |
| :------------- | ---------: | -------------: | ------: | ----: | ---: | ---: | ---: | ---: | ---: | :---- |
| grp\_id        |      14428 |           0.26 |    3.42 |  3.08 |    1 |    1 |    2 |    4 |   24 | ▇▁▁▁▁ |
| year           |          0 |           1.00 | 1996.72 | 11.30 | 1980 | 1988 | 1996 | 2008 | 2016 | ▇▇▇▆▆ |

``` r
disciplines <- athletes %>% select(event) %>% distinct
disciplines
```

    ## # A tibble: 1,670 x 1
    ##    event                               
    ##    <chr>                               
    ##  1 Double FITA Round Amputee           
    ##  2 Double FITA Round Paraplegic        
    ##  3 Double FITA Round Tetraplegic       
    ##  4 Double FITA Round Novice Paraplegic 
    ##  5 Double FITA Round Novice Tetraplegic
    ##  6 Short Metric Round Paraplegic       
    ##  7 Short Metric Round Tetraplegic      
    ##  8 Advanced Metric Round Paraplegic    
    ##  9 Double FITA Round Team Amputee      
    ## 10 Double FITA Round Team Paraplegic   
    ## # ... with 1,660 more rows
…
