…
``` r
long_games <- joined |> 
  mutate(avg_time = (playingtime + minplaytime)/2) |> 
  filter(avg_time > 600)
```

``` r
joined |> 
  filter(playingtime < 10)
```

    ## # A tibble: 970 x 32
    ##    num.x     id primary             description yearpublished minplayers maxplayers
    ##    <dbl>  <dbl> <chr>               <chr>               <dbl>      <dbl>      <dbl>
    ##  1    67    171 Chess               Chess is a~          1475          2          2
    ##  2   820 194626 Happy Salmon        Descriptio~          2016          3          6
    ##  3  1029  11901 Tic-Tac-Toe         A very old~         -1300          2          2
    ##  4  1036   1540 BattleTech          BattleTech~          1985          2          0
    ##  5  1091  19841 Pentago             Pentago is~          2005          2          2
    ##  6  1290  65611 Cthulhu Dice        Serving Ct~          2010          2          6
    ##  7  1565 253618 5-Minute Marvel     The Marvel~          2018          2          5
    ##  8  1941  33468 Zombie in My Pocket There are ~          2007          1          1
    ##  9  2021 184491 Spaceteam           Spaceteam ~          2015          3          6
    ## 10  2141  10799 Old Maid            Old Maid i~          1874          2          6
    ## # ... with 960 more rows, and 25 more variables: playingtime <dbl>,
    ## #   minplaytime <dbl>, maxplaytime <dbl>, minage <dbl>,
    ## #   boardgamecategory <chr>, boardgamemechanic <chr>, boardgamefamily <chr>,
    ## #   boardgameexpansion <chr>, boardgameimplementation <chr>,
    ## #   boardgamedesigner <chr>, boardgameartist <chr>, boardgamepublisher <chr>,
    ## #   owned <dbl>, trading <dbl>, wanting <dbl>, wishing <dbl>, num.y <dbl>,
    ## #   name <chr>, year <dbl>, rank <dbl>, average <dbl>, bayes_average <dbl>, ...
…
