…
  - There are only 10 brands represented
  - Light beers are taking off

<!-- end list -->

``` r
youtube %>%  
  count(year) %>%
  arrange(year)
```

    ## # A tibble: 21 x 2
    ##     year     n
    ##    <dbl> <int>
    ##  1  2000     8
    ##  2  2001    13
    ##  3  2002    10
    ##  4  2003    12
    ##  5  2004    11
    ##  6  2005    11
    ##  7  2006     7
    ##  8  2007    14
    ##  9  2008    13
    ## 10  2009    15
    ## # ... with 11 more rows
…
  - Metrics: views, likes, dislikes, number comments, favorite count
      - Views is probably most important for ads…
      - have to log - transform view\_count
      - Some companies have more than one ad per year, account for that

<!-- end list -->

``` r
youtube %>% 
  select(year, brand, view_count) %>% 
  arrange(desc(view_count))
```

    ## # A tibble: 247 x 3
    ##     year brand     view_count
    ##    <dbl> <chr>          <dbl>
    ##  1  2012 Doritos    176373378
    ##  2  2017 Budweiser   28785122
    ##  3  2020 NFL         26727063
    ##  4  2012 Coca-Cola   22849816
    ##  5  2014 Doritos      7952240
    ##  6  2019 Bud Light    7658201
    ##  7  2016 Coca-Cola    6428474
    ##  8  2016 NFL          4921309
    ##  9  2000 Budweiser    3624622
    ## 10  2018 NFL          3464175
    ## # ... with 237 more rows
…
