…
## ‘Employed’ exploratory

  - If ‘industry’ is used, a couple of things probably need to be fixed:
      - remove NA, fix parsing error for ‘mining, quarrying…’
      - Combine or remove categories that count numbers twice

<!-- end list -->

``` r
employed %>% 
  count(industry) %>% 
  arrange(n)
```

    ## # A tibble: 26 x 2
    ##    industry                                               n
    ##    <chr>                                              <int>
    ##  1 "Asian"                                               66
    ##  2 "Black or African American"                           66
    ##  3 "Men"                                                 66
    ##  4 "White"                                               66
    ##  5 "Women"                                               66
    ##  6 "Mining, quarrying, and\r\noil and gas extraction"   132
    ##  7 "Mining, quarrying, and oil and gas extraction"      264
    ##  8  <NA>                                                330
    ##  9 "Agriculture and related"                            396
    ## 10 "Construction"                                       396
    ## # ... with 16 more rows
…
